101 29 30
Rings ahead.

372 15 13 
Don't be scared.

347 29 66
Path ahead.

151 21 6
Alice...?

346 10 7
It's here!

333 25 12
Consider kill.

359 11 18
Something amazing ahead.

336 34 201
Come back later.

079 21 26
Ah... how curious...

043 10 17
Cherisj your allies.

369 11 15 
Don't go back to her...

001 23 58
I kneel to the Korean overlords...

